
{"user": {
    "introduction.j2.md": {
      "label": "{{ _('Introduction') }}",
      "sub_pages": {}
    },
    "forms.j2.md": {
      "label": "{{ _('My forms') }}",
      "sub_pages": {
        "form.j2.md": {"label": "{{ _('Form configuration') }}" },
        "form_options.j2.md": {"label": "{{ _('Form options') }}" },
        "form_new.j2.md": {"label": "{{ _('New form') }}" },
        "form_edit.j2.md": {"label": "{{ _('Form fields') }}" },
        "form_expiration.j2.md": {"label": "{{ _('Expiration conditions') }}" },
        "form_editors.j2.md": {"label": "{{ _('Editors') }}" },
        "form_shareanswers.j2.md": {"label": "{{ _('Share answers') }}" },
        "form_listlog.j2.md": {"label": "{{ _('Log') }}" },
        "form_delete.j2.md": {"label": "{{ _('Delete form') }}" },
        "form_qr.j2.md": {"label": "{{ _('The form\'s QR') }}" },
        "form_style.j2.md": {"label": "{{ _('Look and feel') }}" },
        "form_preview.j2.md": {"label": "{{ _('Form preview') }}" },
        "form_changename.j2.md": {"label": "{{ _('Change form name') }}" },
        "form_invitation.j2.md": {"label": "{{ _('Form invitation') }}" },
        "forms_templates.j2.md": {"label": "{{ _('Form templates') }}" },
        "form_confirmation.j2.md": {"label": "{{ _('Confirmation email') }}" },
        "form_dataconsent_edit.j2.md": {"label": "{{ _('Form privacy statement') }}" },
        "form_fediverse_publish.j2.md": {"label": "{{ _('Publish on the Fediverse') }}" }
      }
    },
    "form_answers.j2.md": {
      "label": "{{ _('Answers') }}",
      "sub_pages": {
        "form_answers_graphs.j2.md": {"label": "{{ _('Graphs') }}" },
        "form_answers_csv.j2.md": {"label": "{{ _('Export CSV') }}" },
        "form_deleteallanswers.j2.md": {"label": "{{ _('Delete all answers') }}" },
        "form_answer_editions.j2.md": {"label": "{{ _('Answer edition history') }}" }
      }
    },
    "user_media.j2.md": {
      "label": "{{ _('Media') }}",
      "sub_pages": {}
    },
    "user_dataconsent.j2.md": {
      "label": "{{ _('Privacy') }}",
      "sub_pages" : {
        "wizard.j2.md": {"label": "{{ _('Privacy statement wizard') }}" },
        "user_dataconsent_edit.j2.md": {"label": "{{ _('Privacy statement') }}" },
        "form_dataconsents.j2.md": {"label": "{{ _('Form privacy statement') }}" }
      }
    },
    "user_statistics.j2.md": {
      "label": "{{ _('Statistics') }}",
      "sub_pages": {}
    },
    "user.j2.md": {
      "label": "{{ _('Profile settings') }}",
      "sub_pages" : {
        "user_changetimezone.j2.md": {"label": "{{ _('Timezone') }}" },
        "user_avatar.j2.md": {"label": "{{ _('Your avatar') }}" },
        "user_changelanguage.j2.md": {"label": "{{ _('Preferred language') }}" },
        "user_fediverse.j2.md": {"label": "{{ _('Fediverse') }}" },
        "user_deleteaccount.j2.md": {"label": "{{ _('Delete your account') }}" },
        "user_changeemail.j2.md": {"label": "{{ _('Change email address') }}" },
        "user_resetpassword.j2.md": {"label": "{{ _('Password') }}" }
      }
    },
    "glossary.j2.md": {
      "label": "{{ _('Glossary') }}",
      "sub_pages" : {
        "roles.j2.md": {"label": "{{ _('User roles') }}" },
        "markdown.j2.md": {"label": "{{ _('Markdown editor') }}" }
      }
    }
  },

  "admin": {
    "admin_forms.j2.md": {
      "label": "{{ _('Forms') }}",
      "sub_pages": {
        "admin_form.j2.md": {"label": "{{ _('Form details') }}" }
      }
    },
    "admin_users.j2.md": {
      "label": "{{ _('Users') }}",
      "sub_pages": {
        "admin_user.j2.md": {"label": "{{ _('User details') }}" },
        "admin_user_delete.j2.md": {"label": "{{ _('Delete user') }}" },
        "admin_user_setuploadlimit.j2.md": {"label": "{{ _('Uploads limit') }}" },
        "admin_invites.j2.md": {"label": "{{ _('Invitations') }}" },
        "admin_invites_new.j2.md": {"label": "{{ _('New invitation') }}" }
      }
    },
    "site_stats.j2.md": {
      "label": "{{ _('Statistics') }}",
      "sub_pages": {}
    },
    "server_logs.j2.md": {
      "label": "{{ _('Activity') }}",
      "sub_pages": {}
    },
    "admin.j2.md": {
      "label": "{{ _('Configuration') }}",
      "sub_pages": {
        "site_customlanguages.j2.md": {"label": "{{ _('Custom translations') }}" },
        "site_mimetypes.j2.md": {"label": "{{ _('Form attachments') }}" },
        "site_dataconsent.j2.md": {"label": "{{ _('Site Privacy statement library') }}" },
        "site_dataprotection.j2.md": {"label": "{{ _('Wizard settings') }}" },
        "site_dataconsent_edit.j2.md": {"label": "{{ _('Site privacy statement') }}" },
        "site_email_config.j2.md": {"label": "{{ _('Email server') }}" },
        "site_resourcesmenu.j2.md": {"label": "{{ _('Resources menu') }}" },
        "site_lookandfeel.j2.md": {"label": "{{ _('Look and feel') }}" },
        "site_frontpagetext.j2.md": {"label": "{{ _('Front page text') }}" },
        "site_invitationtemplate.j2.md": {"label": "{{ _('Invitation template') }}" },
        "site_newformmessage.j2.md": {"label": "{{ _('New form message') }}" },
        "site_otherinfo.j2.md": {"label": "{{ _('Other information') }}" },
        "site_ldapconfig.j2.md": {"label": "{{ _('LDAP configuration') }}" },
        "site_newuserlanguage.j2.md": {"label": "{{ _('New user language') }}" }
      }
    }
  }
}
